,1990,1991,1992,1993,1994,1995,1996,1997,1998,1999,2000,2001,2002,2003,2004,2005,2006,2007,2008,2009,2010,2011,2012,2013,2014,2015
Czech Republic,"19838,7050636147","17576,5955244583","17469,6922738463","17462,3457262485","17963,8893571622","19093,1990754312","19934,1085026478","19821,0467406491","19777,1346810634","20082,0483520721","21003,2123030876","21725,6040186219","22126,0541520124","22929,5614209347","24056,6687172739","25571,0665130053","27255,5653192459","28595,2449814699","29127,8546062803","27560,0803908418","28110,5860458269","28604,2126636231","28307,050472394","28148,2025992656","28715,1387268736",
Germany,"31469,8468358908","32837,2809276432","33215,4912890325","32682,3377115284","33369,5189077715","33849,729028942","34027,9401031848","34606,5140130563","35286,246903831","35964,1794389031","36979,3391107381","37543,1030747874","37480,0355186019","37193,3652563983","37636,6865607284","37924,1968622596","39371,8380731845","40709,97116308","41228,9007737873","39011,0287296529","40664,9029877677","42142,5488974642","43035,05014066","43045,5970358607","43602,3592467699",
Hungary,,"14967,7554755669","14514,7959378938","14447,641025199","14893,808496534","15136,7142401084","15169,2931535709","15720,481651612","16420,4486332856","17001,2444159438","17766,0468310511","18492,2559057278","19375,9588930041","20178,4672237882","21221,7636496904","22189,9788925204","23070,5059932195","23204,6645279579","23440,4395821447","21936,9187658407","22149,9589431713","22603,2027174727","22336,5151438494","22821,3799691238","23734,7855136299",
Poland,"10139,8804913384","9395,1274601818","9601,9204037862","9935,5566780199","10439,3744017729","11149,9616262063","11836,5904383662","12667,0704501978","13293,3438726958","13895,9148480002","14639,9480897328","14820,4916019436","15041,3906775881","15587,7622301888","16397,8880877563","16986,994624805","18050,3878548085","19360,8293186548","20117,1052227943","20633,0458684831","21457,4272351252","22520,0128003371","22871,7655183545","23175,0130886019","23975,8318966528",
Slovak Republic,,,"11361,7836719211","11533,6978309383","12201,2504928013","12876,4940679972","13717,5104913125","14522,9877347286","15085,3766882484","15039,085189676","15241,7043452021","15776,035947227","16495,5484898209","17400,8453606662","18319,6574668129","19489,7065272402","21142,5354570091","23426,3734520491","24729,3853660175","23340,2930922485","24503,5701457477","25167,4595309162","25507,4044700709","25843,846548695","26470,6094584515",
