"state",1995,1996,1997,1998,1999,2000,2001,2002,2003,2004,2005,2006,2007,2008,2009,2010,2011,2012,2013,2014
"Česko","76,8%","78,5%","76,3%","73,4%","72,7%","72,1%","74,2%","74,2%","77,4%","79,0%","80,1%","80,9%","83,6%","81,5%","83,1%","81,2%","82,9%","82,1%","83,2%","84,7%"
"Maďarsko","50,7%","50,3%","51,4%","52,8%","53,1%","53,6%","57,4%","60,4%","61,8%","62,1%","62,4%","62,0%","60,7%","62,8%","64,5%","65,0%","65,5%","64,9%","66,6%","68,1%"
"Polsko","42,5%","44,3%","45,9%","46,8%","47,8%","47,0%","46,1%","47,0%","47,6%","49,2%","49,8%","50,4%","53,1%","54,5%","59,2%","62,1%","64,5%","66,6%","67,0%","67,8%"
"Slovensko","47,1%","49,2%","51,0%","51,5%","49,9%","49,4%","51,5%","53,2%","54,9%","56,4%","59,4%","62,4%","67,1%","71,6%","71,2%","73,3%","72,9%","74,6%","75,9%","76,9%"
"Řecko","85,5%","85,8%","87,4%","86,5%","86,3%","85,5%","87,9%","92,0%","94,0%","95,9%","91,5%","94,1%","92,1%","94,0%","94,8%","87,2%","77,2%","71,9%","70,7%","70,5%"
"Portugalsko","76,0%","75,8%","77,0%","77,5%","79,4%","79,1%","78,2%","78,3%","78,3%","76,5%","79,5%","79,4%","79,2%","78,7%","81,0%","81,1%","78,0%","77,5%","77,3%","78,1%"
"Průměr EU 28","100,0%","100,0%","100,0%","100,0%","100,0%","100,0%","100,0%","100,0%","100,0%","100,0%","100,0%","100,0%","100,0%","100,0%","100,0%","100,0%","100,0%","100,0%","100,0%","100,0%"
